%YAML 1.1
%TAG !u! tag:unity3d.com,2011:
--- !u!74 &7400000
AnimationClip:
  m_ObjectHideFlags: 0
  m_CorrespondingSourceObject: {fileID: 0}
  m_PrefabInstance: {fileID: 0}
  m_PrefabAsset: {fileID: 0}
  m_Name: Idle
  serializedVersion: 6
  m_Legacy: 0
  m_Compressed: 0
  m_UseHighQualityCurve: 1
  m_RotationCurves: []
  m_CompressedRotationCurves: []
  m_EulerCurves: []
  m_PositionCurves: []
  m_ScaleCurves: []
  m_FloatCurves: []
  m_PPtrCurves:
  - curve:
    - time: 0
      value: {fileID: 21300000, guid: e75af3e73c962da43bb6b761cfaced7a, type: 3}
    - time: 0.083333336
      value: {fileID: 21300000, guid: 5ee43fba374790c45b8d187e89b507ed, type: 3}
    - time: 0.16666667
      value: {fileID: 21300000, guid: ca88db6c7017af44da856df779166733, type: 3}
    - time: 0.25
      value: {fileID: 21300000, guid: 89007f1c2fe42a047a4aec6664b6a115, type: 3}
    - time: 0.33333334
      value: {fileID: 21300000, guid: 03a9ca0fc2b7e79489d5bac4e831bf7d, type: 3}
    - time: 0.41666666
      value: {fileID: 21300000, guid: 7bf945b3d78b58f418951ab6b9414505, type: 3}
    - time: 0.5
      value: {fileID: 21300000, guid: e9ef51b36dc8f30489ee950c908af71e, type: 3}
    - time: 0.5833333
      value: {fileID: 21300000, guid: 5ae864e4eb3398c47aa501a3d61e7802, type: 3}
    - time: 0.6666667
      value: {fileID: 21300000, guid: 6a72fcfe8803df34f9f5a7608affcf54, type: 3}
    - time: 0.75
      value: {fileID: 21300000, guid: 1f187a1f2b426b345baa386328f1d92b, type: 3}
    attribute: m_Sprite
    path: 
    classID: 212
    script: {fileID: 0}
  m_SampleRate: 12
  m_WrapMode: 0
  m_Bounds:
    m_Center: {x: 0, y: 0, z: 0}
    m_Extent: {x: 0, y: 0, z: 0}
  m_ClipBindingConstant:
    genericBindings:
    - serializedVersion: 2
      path: 0
      attribute: 0
      script: {fileID: 0}
      typeID: 212
      customType: 23
      isPPtrCurve: 1
    pptrCurveMapping:
    - {fileID: 21300000, guid: e75af3e73c962da43bb6b761cfaced7a, type: 3}
    - {fileID: 21300000, guid: 5ee43fba374790c45b8d187e89b507ed, type: 3}
    - {fileID: 21300000, guid: ca88db6c7017af44da856df779166733, type: 3}
    - {fileID: 21300000, guid: 89007f1c2fe42a047a4aec6664b6a115, type: 3}
    - {fileID: 21300000, guid: 03a9ca0fc2b7e79489d5bac4e831bf7d, type: 3}
    - {fileID: 21300000, guid: 7bf945b3d78b58f418951ab6b9414505, type: 3}
    - {fileID: 21300000, guid: e9ef51b36dc8f30489ee950c908af71e, type: 3}
    - {fileID: 21300000, guid: 5ae864e4eb3398c47aa501a3d61e7802, type: 3}
    - {fileID: 21300000, guid: 6a72fcfe8803df34f9f5a7608affcf54, type: 3}
    - {fileID: 21300000, guid: 1f187a1f2b426b345baa386328f1d92b, type: 3}
  m_AnimationClipSettings:
    serializedVersion: 2
    m_AdditiveReferencePoseClip: {fileID: 0}
    m_AdditiveReferencePoseTime: 0
    m_StartTime: 0
    m_StopTime: 0.8333333
    m_OrientationOffsetY: 0
    m_Level: 0
    m_CycleOffset: 0
    m_HasAdditiveReferencePose: 0
    m_LoopTime: 1
    m_LoopBlend: 0
    m_LoopBlendOrientation: 0
    m_LoopBlendPositionY: 0
    m_LoopBlendPositionXZ: 0
    m_KeepOriginalOrientation: 0
    m_KeepOriginalPositionY: 1
    m_KeepOriginalPositionXZ: 0
    m_HeightFromFeet: 0
    m_Mirror: 0
  m_EditorCurves: []
  m_EulerEditorCurves: []
  m_HasGenericRootTransform: 0
  m_HasMotionFloatCurves: 0
  m_Events: []
