%YAML 1.1
%TAG !u! tag:unity3d.com,2011:
--- !u!74 &7400000
AnimationClip:
  m_ObjectHideFlags: 0
  m_CorrespondingSourceObject: {fileID: 0}
  m_PrefabInstance: {fileID: 0}
  m_PrefabAsset: {fileID: 0}
  m_Name: Idle_Jack_OLantern
  serializedVersion: 6
  m_Legacy: 0
  m_Compressed: 0
  m_UseHighQualityCurve: 1
  m_RotationCurves: []
  m_CompressedRotationCurves: []
  m_EulerCurves: []
  m_PositionCurves: []
  m_ScaleCurves: []
  m_FloatCurves: []
  m_PPtrCurves:
  - curve:
    - time: 0
      value: {fileID: 21300000, guid: 4b511473561799341b92e4679e8466fd, type: 3}
    - time: 0.083333336
      value: {fileID: 21300000, guid: 27a1883848f3df44c94f6f8e2f3025a5, type: 3}
    - time: 0.16666667
      value: {fileID: 21300000, guid: b58e60bb65b2876478ef8f26053be766, type: 3}
    - time: 0.25
      value: {fileID: 21300000, guid: 921fb59176148d749ae9af033d824a78, type: 3}
    - time: 0.33333334
      value: {fileID: 21300000, guid: 96140f1b0113b8f4d8b484ce7e6cca99, type: 3}
    - time: 0.41666666
      value: {fileID: 21300000, guid: 5d9bab5ed7580f5428ae7513ba769757, type: 3}
    - time: 0.5
      value: {fileID: 21300000, guid: 9e7989e9cc54cff4dbb01a766b01e462, type: 3}
    - time: 0.5833333
      value: {fileID: 21300000, guid: c47c14e7e8fbd014bb3202d49067d71c, type: 3}
    - time: 0.6666667
      value: {fileID: 21300000, guid: 375f16ae8bac5384d842cf32f7e1734a, type: 3}
    - time: 0.75
      value: {fileID: 21300000, guid: cf126d31c819d6e4eaedfb03d5a520e4, type: 3}
    attribute: m_Sprite
    path: 
    classID: 212
    script: {fileID: 0}
  m_SampleRate: 12
  m_WrapMode: 0
  m_Bounds:
    m_Center: {x: 0, y: 0, z: 0}
    m_Extent: {x: 0, y: 0, z: 0}
  m_ClipBindingConstant:
    genericBindings:
    - serializedVersion: 2
      path: 0
      attribute: 0
      script: {fileID: 0}
      typeID: 212
      customType: 23
      isPPtrCurve: 1
    pptrCurveMapping:
    - {fileID: 21300000, guid: 4b511473561799341b92e4679e8466fd, type: 3}
    - {fileID: 21300000, guid: 27a1883848f3df44c94f6f8e2f3025a5, type: 3}
    - {fileID: 21300000, guid: b58e60bb65b2876478ef8f26053be766, type: 3}
    - {fileID: 21300000, guid: 921fb59176148d749ae9af033d824a78, type: 3}
    - {fileID: 21300000, guid: 96140f1b0113b8f4d8b484ce7e6cca99, type: 3}
    - {fileID: 21300000, guid: 5d9bab5ed7580f5428ae7513ba769757, type: 3}
    - {fileID: 21300000, guid: 9e7989e9cc54cff4dbb01a766b01e462, type: 3}
    - {fileID: 21300000, guid: c47c14e7e8fbd014bb3202d49067d71c, type: 3}
    - {fileID: 21300000, guid: 375f16ae8bac5384d842cf32f7e1734a, type: 3}
    - {fileID: 21300000, guid: cf126d31c819d6e4eaedfb03d5a520e4, type: 3}
  m_AnimationClipSettings:
    serializedVersion: 2
    m_AdditiveReferencePoseClip: {fileID: 0}
    m_AdditiveReferencePoseTime: 0
    m_StartTime: 0
    m_StopTime: 0.8333333
    m_OrientationOffsetY: 0
    m_Level: 0
    m_CycleOffset: 0
    m_HasAdditiveReferencePose: 0
    m_LoopTime: 1
    m_LoopBlend: 0
    m_LoopBlendOrientation: 0
    m_LoopBlendPositionY: 0
    m_LoopBlendPositionXZ: 0
    m_KeepOriginalOrientation: 0
    m_KeepOriginalPositionY: 1
    m_KeepOriginalPositionXZ: 0
    m_HeightFromFeet: 0
    m_Mirror: 0
  m_EditorCurves: []
  m_EulerEditorCurves: []
  m_HasGenericRootTransform: 0
  m_HasMotionFloatCurves: 0
  m_Events: []
