%YAML 1.1
%TAG !u! tag:unity3d.com,2011:
--- !u!74 &7400000
AnimationClip:
  m_ObjectHideFlags: 0
  m_CorrespondingSourceObject: {fileID: 0}
  m_PrefabInstance: {fileID: 0}
  m_PrefabAsset: {fileID: 0}
  m_Name: Slide_Jack_OLantern
  serializedVersion: 6
  m_Legacy: 0
  m_Compressed: 0
  m_UseHighQualityCurve: 1
  m_RotationCurves: []
  m_CompressedRotationCurves: []
  m_EulerCurves: []
  m_PositionCurves: []
  m_ScaleCurves: []
  m_FloatCurves: []
  m_PPtrCurves:
  - curve:
    - time: 0
      value: {fileID: 21300000, guid: cda8ae49c3c252d449e9da76aa89d958, type: 3}
    - time: 0.083333336
      value: {fileID: 21300000, guid: 20950b6d63a881441baeefe1b5403e71, type: 3}
    - time: 0.16666667
      value: {fileID: 21300000, guid: 44a101e6e24a1b747964193b263e938f, type: 3}
    - time: 0.25
      value: {fileID: 21300000, guid: 651886523de3a7046aa3ea8c5f92627e, type: 3}
    - time: 0.33333334
      value: {fileID: 21300000, guid: c7a4a4a2393abc2429c25ae1e674004a, type: 3}
    - time: 0.41666666
      value: {fileID: 21300000, guid: 945090eca9f02754683898bc5b988103, type: 3}
    - time: 0.5
      value: {fileID: 21300000, guid: dd40cf80087222b429a1fafc97674ef6, type: 3}
    - time: 0.5833333
      value: {fileID: 21300000, guid: 3dcb174267e9bcf4eb5e72be75ca6421, type: 3}
    - time: 0.6666667
      value: {fileID: 21300000, guid: 70c64b3891732584e8af48ac1ed340d6, type: 3}
    - time: 0.75
      value: {fileID: 21300000, guid: 7a477557333731b42852f42ff3b13b6f, type: 3}
    attribute: m_Sprite
    path: 
    classID: 212
    script: {fileID: 0}
  m_SampleRate: 12
  m_WrapMode: 0
  m_Bounds:
    m_Center: {x: 0, y: 0, z: 0}
    m_Extent: {x: 0, y: 0, z: 0}
  m_ClipBindingConstant:
    genericBindings:
    - serializedVersion: 2
      path: 0
      attribute: 0
      script: {fileID: 0}
      typeID: 212
      customType: 23
      isPPtrCurve: 1
    pptrCurveMapping:
    - {fileID: 21300000, guid: cda8ae49c3c252d449e9da76aa89d958, type: 3}
    - {fileID: 21300000, guid: 20950b6d63a881441baeefe1b5403e71, type: 3}
    - {fileID: 21300000, guid: 44a101e6e24a1b747964193b263e938f, type: 3}
    - {fileID: 21300000, guid: 651886523de3a7046aa3ea8c5f92627e, type: 3}
    - {fileID: 21300000, guid: c7a4a4a2393abc2429c25ae1e674004a, type: 3}
    - {fileID: 21300000, guid: 945090eca9f02754683898bc5b988103, type: 3}
    - {fileID: 21300000, guid: dd40cf80087222b429a1fafc97674ef6, type: 3}
    - {fileID: 21300000, guid: 3dcb174267e9bcf4eb5e72be75ca6421, type: 3}
    - {fileID: 21300000, guid: 70c64b3891732584e8af48ac1ed340d6, type: 3}
    - {fileID: 21300000, guid: 7a477557333731b42852f42ff3b13b6f, type: 3}
  m_AnimationClipSettings:
    serializedVersion: 2
    m_AdditiveReferencePoseClip: {fileID: 0}
    m_AdditiveReferencePoseTime: 0
    m_StartTime: 0
    m_StopTime: 0.8333333
    m_OrientationOffsetY: 0
    m_Level: 0
    m_CycleOffset: 0
    m_HasAdditiveReferencePose: 0
    m_LoopTime: 1
    m_LoopBlend: 0
    m_LoopBlendOrientation: 0
    m_LoopBlendPositionY: 0
    m_LoopBlendPositionXZ: 0
    m_KeepOriginalOrientation: 0
    m_KeepOriginalPositionY: 1
    m_KeepOriginalPositionXZ: 0
    m_HeightFromFeet: 0
    m_Mirror: 0
  m_EditorCurves: []
  m_EulerEditorCurves: []
  m_HasGenericRootTransform: 0
  m_HasMotionFloatCurves: 0
  m_Events: []
